<svg width="22" height="27" viewBox="0 0 22 27" fill="none" xmlns="http://www.w3.org/2000/svg">
<path d="M10.931 1V25M10.931 25L1 14.9806M10.931 25L20.8621 14.9806" stroke="#F38A31" stroke-width="2" stroke-linecap="round"/>
</svg>
